වැලිකඩ බන්ධනාගාරය -1
කොළඹ රිමාන්ඩ් බන්ධනාගාරය -2
නව මැගසින් බන්ධනාගාරය -3
මහර බන්ධනාගාරය -4
මීගමුව බන්ධනාගාරය -5
වටරැක බන්ධනාගාරය -6
කුරුවිට බන්ධනාගාරය -7
බදුල්ල බන්ධනාගාරය -8
වීරවිල බන්ධනාගාරය -9
ගාල්ල බන්ධනාගාරය -10
බෝගම්බර බන්ධනාගාරය -11
පල්ලෙකැලේ බන්ධනාගාරය -12
අනුරාධපුර බන්ධනාගාරය -13
කලුතර බන්ධනාගාරය -14
බූස්ස බන්ධනාගාරය -15
මාතර බන්ධනාගාරය -16
අගුණුකොලපලැස්ස බන්ධනාගාරය -17
මොණරාගල බන්ධනාගාරය -18
තල්දෙන බන්ධනාගාරය -19
පල්ලන්සේන බන්ධනාගාරය -20
අඹේපුස්ස බන්ධනාගාරය -21
කෑගල්ල බන්ධනාගාරය -22
වාරියපොළ බන්ධනාගාරය -23
පොලොන්නරුව බන්ධනාගාරය -24
යාපනය බන්ධනාගාරය -25
ත්‍රිකුණාමලය බන්ධනාගාරය -26
මඩකලපුව බන්ධනාගාරය -27
වවුනියාව බන්ධනාගාරය -28